Project 1: Wrangling, Exploration, Visualization
…
Wrangling

full_dataset %>% filter(str_detect(Region, "Europe")) %>% select(`Life Ladder`, 
    Country, Year) %>% arrange(`Life Ladder`)

## # A tibble: 567 x 3
##    `Life Ladder` Country   Year
##            <dbl> <chr>    <dbl>
##  1          3.68 Georgia   2006
##  2          3.71 Georgia   2007
##  3          3.80 Georgia   2009
##  4          3.84 Bulgaria  2007
##  5          3.88 Bulgaria  2011
##  6          3.91 Bulgaria  2010
##  7          3.96 Ukraine   2015
##  8          3.99 Bulgaria  2013
##  9          4.03 Ukraine   2016
## 10          4.10 Georgia   2010
## #  with 557 more rows

full_dataset %>% mutate(`GDP per capita` = 10^(`Log GDP per capita`))

## # A tibble: 1,949 x 16
##    Country  Year `Life Ladder` `Log GDP per ca `Social support`
##    <chr>   <dbl>         <dbl>            <dbl>            <dbl>
##  1 Afghan  2008          3.72             7.37            0.451
##  2 Afghan  2009          4.40             7.54            0.552
##  3 Afghan  2010          4.76             7.65            0.539
##  4 Afghan  2011          3.83             7.62            0.521
##  5 Afghan  2012          3.78             7.70            0.521
##  6 Afghan  2013          3.57             7.72            0.484
##  7 Afghan  2014          3.13             7.72            0.526
##  8 Afghan  2015          3.98             7.70            0.529
##  9 Afghan  2016          4.22             7.70            0.559
## 10 Afghan  2017          2.66             7.70            0.491
## #  with 1,939 more rows, and 11 more variables: `Freedom to make life
## #   choices` <dbl>, Generosity <dbl>, `Perceptions of corruption` <dbl>,
## #   `Positive affect` <dbl>, `Negative affect` <dbl>, Region <chr>, `Alcohol
## #   Liters per Person` <dbl>, `Life Expectancy` <dbl>, `Urban Percentage of
## #   Population` <dbl>, `Suicides per 100,000` <dbl>, `GDP per capita` <dbl>

# Categorical variables
full_dataset %>% group_by(Country) %>% summarize(n())

## # A tibble: 166 x 2
##    Country     `n()`
##    <chr>       <int>
##  1 Afghanistan    12
##  2 Albania        13
##  3 Algeria         8
##  4 Angola          4
##  5 Argentina      15
##  6 Armenia        14
##  7 Australia      14
##  8 Austria        13
##  9 Azerbaijan     14
## 10 Bahrain        11
## #  with 156 more rows
…
## # A tibble: 1 x 5
##   mean_AlcLiters sd_AlcLiters var_AlcLiters min_AlcLiters max_AlcLiters
##            <dbl>        <dbl>         <dbl>         <dbl>         <dbl>
## 1           6.15         4.38          19.2             0          16.7

full_dataset %>% group_by(Country, Year) %>% summarize(mean_AlcLiters = mean(`Alcohol Liters per Person`, 
    na.rm = TRUE), min_AlcLiters = min(`Alcohol Liters per Person`, 
    na.rm = TRUE), max_AlcLiters = max(`Alcohol Liters per Person`, 
    na.rm = TRUE), Vodka_Handles = `Alcohol Liters per Person`/1.75) %>% 
    arrange(desc(Vodka_Handles))

## # A tibble: 1,949 x 6
## # Groups:   Country [166]
##    Country     Year mean_AlcLiters min_AlcLiters max_AlcLiters Vodka_Handles
##    <chr>      <dbl>          <dbl>         <dbl>         <dbl>         <dbl>
##  1 Estonia     2006           16.7          16.7          16.7          9.53
##  2 Montenegro  2007           16.6          16.6          16.6          9.50
##  3 Montenegro  2009           16.5          16.5          16.5          9.45
##  4 Lithuania   2007           16.5          16.5          16.5          9.43
##  5 Lithuania   2006           16.5          16.5          16.5          9.41
##  6 Estonia     2007           16.4          16.4          16.4          9.37
##  7 Lithuania   2012           16.4          16.4          16.4          9.35
##  8 Lithuania   2013           16.3          16.3          16.3          9.33
##  9 Romania     2007           16.2          16.2          16.2          9.26
## 10 Romania     2005           16.0          16.0          16.0          9.14
## #  with 1,939 more rows
…
## # A tibble: 1 x 5
##   mean_UrbanPop sd_UrbanPop var_UrbanPop min_UrbanPop max_UrbanPop
##           <dbl>       <dbl>        <dbl>        <dbl>        <dbl>
## 1          60.3        22.3         498.         10.4          100

full_dataset %>% group_by(Country) %>% summarize(mean_UrbanPop = mean(`Urban Percentage of Population`, 
    na.rm = TRUE), sd_UrbanPop = sd(`Urban Percentage of Population`, 
    na.rm = TRUE), var_UrbanPop = var(`Urban Percentage of Population`, 
    na.rm = TRUE), min_UrbanPop = min(`Urban Percentage of Population`, 
    na.rm = TRUE), max_UrbanPop = max(`Urban Percentage of Population`, 
    na.rm = TRUE))

## # A tibble: 166 x 6
##    Country     mean_UrbanPop sd_UrbanPop var_UrbanPop min_UrbanPop max_UrbanPop
##    <chr>               <dbl>       <dbl>        <dbl>        <dbl>        <dbl>
##  1 Afghanistan          24.7       0.821       0.675          23.5         26  
##  2 Albania              56.7       3.79       14.4            50           62.1
##  3 Algeria              71.1       2.07        4.29           68.2         73.7
##  4 Angola               62.4       0.904       0.817          61.3         63.4
##  5 Argentina            91.3       0.554       0.306          90.4         92.1
##  6 Armenia              63.3       0.201       0.0403         63.1         63.7
##  7 Australia            85.6       0.463       0.214          84.7         86.2
##  8 Austria              57.8       0.533       0.284          57.1         58.7
##  9 Azerbaijan           54.4       1.16        1.34           52.8         56.4
## 10 Bahrain              89.0       0.285       0.081          88.6         89.5
## #  with 156 more rows
…
## # A tibble: 1 x 5
##   mean_Suicides sd_Suicides var_Suicides min_Suicides max_Suicides
##           <dbl>       <dbl>        <dbl>        <dbl>        <dbl>
## 1          9.29        5.95         35.4       0.0578         30.9

full_dataset %>% filter(Region != "Americas") %>% group_by(Country, 
    Year) %>% summarize(mean_Suicides = mean(`Suicides per 100,000`, 
    na.rm = TRUE), sd_Suicides = sd(`Suicides per 100,000`, na.rm = TRUE), 
    var_Suicides = var(`Suicides per 100,000`, na.rm = TRUE), 
    min_Suicides = min(`Suicides per 100,000`, na.rm = TRUE), 
    max_Suicides = max(`Suicides per 100,000`, na.rm = TRUE)) %>% 
    arrange(desc(mean_Suicides))

## # A tibble: 1,316 x 7
## # Groups:   Country [116]
##    Country  Year mean_Suicides sd_Suicides var_Suicides min_Suicides
##    <chr>   <dbl>         <dbl>       <dbl>        <dbl>        <dbl>
##  1 Lithua  2012          30.9          NA           NA         30.9
##  2 Lithua  2008          30.4          NA           NA         30.4
##  3 Lithua  2007          30.1          NA           NA         30.1
##  4 Lithua  2010          28            NA           NA         28  
##  5 Lithua  2009          27.6          NA           NA         27.6
##  6 Lithua  2006          27.4          NA           NA         27.4
##  7 Lithua  2013          26.1          NA           NA         26.1
##  8 Lithua  2011          25.7          NA           NA         25.7
##  9 Lithua  2014          25.2          NA           NA         25.2
## 10 Lithua  2015          22.9          NA           NA         22.9
## #  with 1,306 more rows, and 1 more variable: max_Suicides <dbl>
…
